// Jest Snapshot v1, https://goo.gl/fbAQLP

exports[`<App /> should render and match the snapshot 1`] = `
<div>
  <HelmetWrapper
    defer={true}
    encodeSpecialCharacters={true}
    titleTemplate="%s - Roger Fedor"
  >
    <title>
      Homepage
    </title>
    <meta
      content="A summary of my education, job history and recent projects."
      name="description"
    />
  </HelmetWrapper>
  <TopMenu />
  <ForwardRef
    fluid={false}
  >
    <ForwardRef
      className="font-weight-bold text-uppercase"
    >
      <FormattedMessage
        defaultMessage="Resume"
        id="app.containers.App.header"
        values={Object {}}
      />
    </ForwardRef>
    <ForwardRef
      noGutters={false}
    >
      <ForwardRef
        md="4"
      >
        <Sidebar
          details={
            Array [
              Object {
                "label": Object {
                  "defaultMessage": "Name",
                  "id": "app.containers.App.name",
                },
                "value": "Roger Fedor",
              },
              Object {
                "label": Object {
                  "defaultMessage": "Location",
                  "id": "app.containers.App.location",
                },
                "value": "Austin, TX",
              },
              Object {
                "label": Object {
                  "defaultMessage": "Experience",
                  "id": "app.containers.App.experience",
                },
                "value": Object {
                  "defaultMessage": "17 years",
                  "id": "app.containers.App.experience_value",
                },
              },
              Object {
                "label": Object {
                  "defaultMessage": "Degree",
                  "id": "app.containers.App.degree",
                },
                "value": "BSCS",
              },
              Object {
                "label": Object {
                  "defaultMessage": "Languages",
                  "id": "app.containers.App.language",
                },
                "value": Object {
                  "defaultMessage": "English / Castilian",
                  "id": "app.containers.App.language_value",
                },
              },
            ]
          }
        />
      </ForwardRef>
      <ForwardRef>
        <Switch>
          <Route
            component={[Function]}
            exact={true}
            path="/"
          />
          <Route
            component={[Function]}
            path="/portfolio"
          />
          <Route
            component={[Function]}
            path="/resume"
          />
          <Route
            component={[Function]}
            path="/recommendations"
          />
          <Route
            component={[Function]}
          />
        </Switch>
      </ForwardRef>
    </ForwardRef>
  </ForwardRef>
  <GlobalStyleComponent />
</div>
`;
