// Jest Snapshot v1, https://goo.gl/fbAQLP

exports[`<HomePage /> should render and match the snapshot 1`] = `
<div
  class="DivPanel__StyledDivPane-sc-1nugb8n-0 ilRdwT"
>
  <h2
    class="H2__styledH2-ywk3e4-0 guVWsY"
  >
    <span>
      About Me
    </span>
  </h2>
  <hr />
  <div
    class="p-3"
  >
    <div
      class="p-1 row"
    >
      <div
        class="ListDetails__StyledCol-psfaym-0 fZcnWV col-sm-3"
      >
        <span>
          Name
        </span>
      </div>
      <div
        class="col-sm-3"
      >
        Roger Fedor
      </div>
      <div
        class="ListDetails__StyledCol-psfaym-0 fZcnWV col-sm-3"
      >
        <span>
          Location
        </span>
      </div>
      <div
        class="col-sm-3"
      >
        Austin, TX
      </div>
    </div>
    <div
      class="p-1 row"
    >
      <div
        class="ListDetails__StyledCol-psfaym-0 fZcnWV col-sm-3"
      >
        <span>
          Experience
        </span>
      </div>
      <div
        class="col-sm-3"
      >
        <span>
          17 years
        </span>
      </div>
      <div
        class="ListDetails__StyledCol-psfaym-0 fZcnWV col-sm-3"
      >
        <span>
          Degree
        </span>
      </div>
      <div
        class="col-sm-3"
      >
        BSCS
      </div>
    </div>
    <div
      class="p-1 row"
    >
      <div
        class="ListDetails__StyledCol-psfaym-0 fZcnWV col-sm-3"
      >
        <span>
          Languages
        </span>
      </div>
      <div
        class="col-sm-3"
      >
        <span>
          English / Castilian
        </span>
      </div>
    </div>
  </div>
</div>
`;
